

NE exclusion in lemma: False | pos: False | morph: False
Number of tokens:	35087
Number of different lemmas:	3814
Number of different forms:	7235
Error ratio on lemmas:	90.69 % (3267 / 35087)
Error ratio on pos:	92.54 % (2616 / 35087)
Error ratio on morph:	89.92 % (3537 / 35087)